module gitlab.com/liguros/merge-scripts

go 1.22

require (
	github.com/go-git/go-git/v5 v5.12.0
	github.com/otiai10/copy v1.14.0
	github.com/pelletier/go-toml v1.9.5
	github.com/urfave/cli/v2 v2.27.4
	gitlab.com/bluebottle/go-modules/misc v0.0.7
)

require (
	dario.cat/mergo v1.0.0 // indirect
	github.com/Microsoft/go-winio v0.6.1 // indirect
	github.com/ProtonMail/go-crypto v1.0.0 // indirect
	github.com/cloudflare/circl v1.3.7 // indirect
	github.com/cpuguy83/go-md2man/v2 v2.0.4 // indirect
	github.com/cyphar/filepath-securejoin v0.2.4 // indirect
	github.com/emirpasic/gods v1.18.1 // indirect
	github.com/go-git/gcfg v1.5.1-0.20230307220236-3a3c6141e376 // indirect
	github.com/go-git/go-billy/v5 v5.5.0 // indirect
	github.com/golang/groupcache v0.0.0-20210331224755-41bb18bfe9da // indirect
	github.com/jbenet/go-context v0.0.0-20150711004518-d14ea06fba99 // indirect
	github.com/kevinburke/ssh_config v1.2.0 // indirect
	github.com/pjbgf/sha1cd v0.3.0 // indirect
	github.com/russross/blackfriday/v2 v2.1.0 // indirect
	github.com/sergi/go-diff v1.3.2-0.20230802210424-5b0b94c5c0d3 // indirect
	github.com/skeema/knownhosts v1.2.2 // indirect
	github.com/xanzy/ssh-agent v0.3.3 // indirect
	github.com/xrash/smetrics v0.0.0-20240521201337-686a1a2994c1 // indirect
	golang.org/x/crypto v0.21.0 // indirect
	golang.org/x/mod v0.12.0 // indirect
	golang.org/x/net v0.22.0 // indirect
	golang.org/x/sync v0.3.0 // indirect
	golang.org/x/sys v0.18.0 // indirect
	golang.org/x/tools v0.13.0 // indirect
	gopkg.in/warnings.v0 v0.1.2 // indirect
)
